[    0.000000] Linux version 4.15.0-124-generic (buildd@lgw01-amd64-029) (gcc version 7.5.0 (Ubuntu 7.5.0-3ubuntu1~18.04)) #127-Ubuntu SMP Fri Nov 6 10:54:43 UTC 2020 (Ubuntu 4.15.0-124.127-generic 4.15.18)
[    0.000000] Command line: BOOT_IMAGE=/boot/vmlinuz-4.15.0-124-generic root=LABEL=cloudimg-rootfs ro console=tty1 console=ttyS0
[    0.000000] KERNEL supported cpus:
[    0.000000]   Intel GenuineIntel
[    0.000000]   AMD AuthenticAMD
[    0.000000]   Centaur CentaurHauls
[    0.000000] [Firmware Bug]: TSC doesn't count with P0 frequency!
[    0.000000] x86/fpu: Supporting XSAVE feature 0x001: 'x87 floating point registers'
[    0.000000] x86/fpu: Supporting XSAVE feature 0x002: 'SSE registers'
[    0.000000] x86/fpu: Supporting XSAVE feature 0x004: 'AVX registers'
[    0.000000] x86/fpu: xstate_offset[2]:  576, xstate_sizes[2]:  256
[    0.000000] x86/fpu: Enabled xstate features 0x7, context size is 832 bytes, using 'standard' format.
[    0.000000] e820: BIOS-provided physical RAM map:
[    0.000000] BIOS-e820: [mem 0x0000000000000000-0x000000000009fbff] usable
[    0.000000] BIOS-e820: [mem 0x000000000009fc00-0x000000000009ffff] reserved
[    0.000000] BIOS-e820: [mem 0x00000000000f0000-0x00000000000fffff] reserved
[    0.000000] BIOS-e820: [mem 0x0000000000100000-0x000000003ffeffff] usable
[    0.000000] BIOS-e820: [mem 0x000000003fff0000-0x000000003fffffff] ACPI data
[    0.000000] BIOS-e820: [mem 0x00000000fec00000-0x00000000fec00fff] reserved
[    0.000000] BIOS-e820: [mem 0x00000000fee00000-0x00000000fee00fff] reserved
[    0.000000] BIOS-e820: [mem 0x00000000fffc0000-0x00000000ffffffff] reserved
[    0.000000] NX (Execute Disable) protection: active
[    0.000000] SMBIOS 2.5 present.
[    0.000000] DMI: innotek GmbH VirtualBox/VirtualBox, BIOS VirtualBox 12/01/2006
[    0.000000] Hypervisor detected: KVM
[    0.000000] e820: last_pfn = 0x3fff0 max_arch_pfn = 0x400000000
[    0.000000] MTRR: Disabled
[    0.000000] x86/PAT: MTRRs disabled, skipping PAT initialization too.
[    0.000000] CPU MTRRs all blank - virtualized system.
[    0.000000] x86/PAT: Configuration [0-7]: WB  WT  UC- UC  WB  WT  UC- UC  
[    0.000000] found SMP MP-table at [mem 0x0009fff0-0x0009ffff]
[    0.000000] Scanning 1 areas for low memory corruption
[    0.000000] RAMDISK: [mem 0x35a69000-0x36d2bfff]
[    0.000000] ACPI: Early table checksum verification disabled
[    0.000000] ACPI: RSDP 0x00000000000E0000 000024 (v02 VBOX  )
[    0.000000] ACPI: XSDT 0x000000003FFF0030 00003C (v01 VBOX   VBOXXSDT 00000001 ASL  00000061)
[    0.000000] ACPI: FACP 0x000000003FFF00F0 0000F4 (v04 VBOX   VBOXFACP 00000001 ASL  00000061)
[    0.000000] ACPI: DSDT 0x000000003FFF0470 002325 (v02 VBOX   VBOXBIOS 00000002 INTL 20200925)
[    0.000000] ACPI: FACS 0x000000003FFF0200 000040
[    0.000000] ACPI: FACS 0x000000003FFF0200 000040
[    0.000000] ACPI: APIC 0x000000003FFF0240 00005C (v02 VBOX   VBOXAPIC 00000001 ASL  00000061)
[    0.000000] ACPI: SSDT 0x000000003FFF02A0 0001CC (v01 VBOX   VBOXCPUT 00000002 INTL 20200925)
[    0.000000] No NUMA configuration found
[    0.000000] Faking a node at [mem 0x0000000000000000-0x000000003ffeffff]
[    0.000000] NODE_DATA(0) allocated [mem 0x3ffc5000-0x3ffeffff]
[    0.000000] kvm-clock: cpu 0, msr 0:3ff44001, primary cpu clock
[    0.000000] kvm-clock: Using msrs 4b564d01 and 4b564d00
[    0.000000] kvm-clock: using sched offset of 2942195753 cycles
[    0.000000] clocksource: kvm-clock: mask: 0xffffffffffffffff max_cycles: 0x1cd42e4dffb, max_idle_ns: 881590591483 ns
[    0.000000] Zone ranges:
[    0.000000]   DMA      [mem 0x0000000000001000-0x0000000000ffffff]
[    0.000000]   DMA32    [mem 0x0000000001000000-0x000000003ffeffff]
[    0.000000]   Normal   empty
[    0.000000]   Device   empty
[    0.000000] Movable zone start for each node
[    0.000000] Early memory node ranges
[    0.000000]   node   0: [mem 0x0000000000001000-0x000000000009efff]
[    0.000000]   node   0: [mem 0x0000000000100000-0x000000003ffeffff]
[    0.000000] Reserved but unavailable: 98 pages
[    0.000000] Initmem setup node 0 [mem 0x0000000000001000-0x000000003ffeffff]
[    0.000000] ACPI: PM-Timer IO Port: 0x4008
[    0.000000] IOAPIC[0]: apic_id 2, version 32, address 0xfec00000, GSI 0-23
[    0.000000] ACPI: INT_SRC_OVR (bus 0 bus_irq 0 global_irq 2 dfl dfl)
[    0.000000] ACPI: INT_SRC_OVR (bus 0 bus_irq 9 global_irq 9 low level)
[    0.000000] Using ACPI (MADT) for SMP configuration information
[    0.000000] smpboot: Allowing 2 CPUs, 0 hotplug CPUs
[    0.000000] PM: Registered nosave memory: [mem 0x00000000-0x00000fff]
[    0.000000] PM: Registered nosave memory: [mem 0x0009f000-0x0009ffff]
[    0.000000] PM: Registered nosave memory: [mem 0x000a0000-0x000effff]
[    0.000000] PM: Registered nosave memory: [mem 0x000f0000-0x000fffff]
[    0.000000] e820: [mem 0x40000000-0xfebfffff] available for PCI devices
[    0.000000] Booting paravirtualized kernel on KVM
[    0.000000] clocksource: refined-jiffies: mask: 0xffffffff max_cycles: 0xffffffff, max_idle_ns: 7645519600211568 ns
[    0.000000] random: get_random_bytes called from start_kernel+0x99/0x500 with crng_init=0
[    0.000000] setup_percpu: NR_CPUS:8192 nr_cpumask_bits:2 nr_cpu_ids:2 nr_node_ids:1
[    0.000000] percpu: Embedded 45 pages/cpu s147456 r8192 d28672 u1048576
[    0.000000] PV qspinlock hash table entries: 256 (order: 0, 4096 bytes)
[    0.000000] Built 1 zonelists, mobility grouping on.  Total pages: 257913
[    0.000000] Policy zone: DMA32
[    0.000000] Kernel command line: BOOT_IMAGE=/boot/vmlinuz-4.15.0-124-generic root=LABEL=cloudimg-rootfs ro console=tty1 console=ttyS0
[    0.000000] Memory: 983036K/1048120K available (12300K kernel code, 2482K rwdata, 4272K rodata, 2436K init, 2724K bss, 65084K reserved, 0K cma-reserved)
[    0.000000] SLUB: HWalign=64, Order=0-3, MinObjects=0, CPUs=2, Nodes=1
[    0.000000] ftrace: allocating 39402 entries in 154 pages
[    0.004000] Hierarchical RCU implementation.
[    0.004000] 	RCU restricting CPUs from NR_CPUS=8192 to nr_cpu_ids=2.
[    0.004000] 	Tasks RCU enabled.
[    0.004000] RCU: Adjusting geometry for rcu_fanout_leaf=16, nr_cpu_ids=2
[    0.004000] NR_IRQS: 524544, nr_irqs: 440, preallocated irqs: 16
[    0.004000] Console: colour VGA+ 80x25
[    0.004000] console [tty1] enabled
[    0.004000] console [ttyS0] enabled
[    0.004000] ACPI: Core revision 20170831
[    0.004000] ACPI: 2 ACPI AML tables successfully acquired and loaded
[    0.004000] APIC: Switch to symmetric I/O mode setup
[    0.004000] x2apic enabled
[    0.004000] Switched APIC routing to physical x2apic.
[    0.004000] ..TIMER: vector=0x30 apic1=0 pin1=2 apic2=-1 pin2=-1
[    0.004000] tsc: Detected 3593.248 MHz processor
[    0.004000] Calibrating delay loop (skipped) preset value.. 7186.49 BogoMIPS (lpj=14372992)
[    0.004000] pid_max: default: 32768 minimum: 301
[    0.004000] Security Framework initialized
[    0.004000] Yama: becoming mindful.
[    0.004000] AppArmor: AppArmor initialized
[    0.004000] Dentry cache hash table entries: 131072 (order: 8, 1048576 bytes)
[    0.004000] Inode-cache hash table entries: 65536 (order: 7, 524288 bytes)
[    0.004000] Mount-cache hash table entries: 2048 (order: 2, 16384 bytes)
[    0.004000] Mountpoint-cache hash table entries: 2048 (order: 2, 16384 bytes)
[    0.004000] Last level iTLB entries: 4KB 1024, 2MB 1024, 4MB 512
[    0.004000] Last level dTLB entries: 4KB 2048, 2MB 2048, 4MB 1024, 1GB 0
[    0.004000] Spectre V1 : Mitigation: usercopy/swapgs barriers and __user pointer sanitization
[    0.004000] Spectre V2 : Spectre mitigation: LFENCE not serializing, switching to generic retpoline
[    0.004000] Spectre V2 : Mitigation: Full generic retpoline
[    0.004000] Spectre V2 : Spectre v2 / SpectreRSB mitigation: Filling RSB on context switch
[    0.004000] Speculative Store Bypass: Mitigation: Speculative Store Bypass disabled via prctl and seccomp
[    0.004000] Freeing SMP alternatives memory: 36K
[    0.117024] APIC calibration not consistent with PM-Timer: 106ms instead of 100ms
[    0.117680] APIC delta adjusted to PM-Timer: 6387658 (6814348)
[    0.118195] smpboot: CPU0: AMD Ryzen 7 3700X 8-Core Processor (family: 0x17, model: 0x71, stepping: 0x0)
[    0.119038] Performance Events: PMU not available due to virtualization, using software events only.
[    0.119797] Hierarchical SRCU implementation.
[    0.120000] NMI watchdog: Perf event create on CPU 0 failed with -2
[    0.120000] NMI watchdog: Perf NMI watchdog permanently disabled
[    0.120000] smp: Bringing up secondary CPUs ...
[    0.120000] x86: Booting SMP configuration:
[    0.120001] .... node  #0, CPUs:      #1
[    0.004000] kvm-clock: cpu 1, msr 0:3ff44041, secondary cpu clock
[    0.122844] smp: Brought up 1 node, 2 CPUs
[    0.122844] smpboot: Max logical packages: 1
[    0.122844] smpboot: Total of 2 processors activated (14372.99 BogoMIPS)
[    0.124093] devtmpfs: initialized
[    0.124338] x86/mm: Memory block size: 128MB
[    0.124781] evm: security.selinux
[    0.125075] evm: security.SMACK64
[    0.125372] evm: security.SMACK64EXEC
[    0.125685] evm: security.SMACK64TRANSMUTE
[    0.126031] evm: security.SMACK64MMAP
[    0.126348] evm: security.apparmor
[    0.126637] evm: security.ima
[    0.126896] evm: security.capability
[    0.127222] clocksource: jiffies: mask: 0xffffffff max_cycles: 0xffffffff, max_idle_ns: 7645041785100000 ns
[    0.127222] futex hash table entries: 512 (order: 3, 32768 bytes)
[    0.128002] pinctrl core: initialized pinctrl subsystem
[    0.128002] RTC time: 15:01:38, date: 12/11/20
[    0.128002] NET: Registered protocol family 16
[    0.128002] audit: initializing netlink subsys (disabled)
[    0.128024] audit: type=2000 audit(1607698902.273:1): state=initialized audit_enabled=0 res=1
[    0.132007] cpuidle: using governor ladder
[    0.132337] cpuidle: using governor menu
[    0.132461] ACPI: bus type PCI registered
[    0.132461] acpiphp: ACPI Hot Plug PCI Controller Driver version: 0.5
[    0.132931] PCI: Using configuration type 1 for base access
[    0.133399] PCI: Using configuration type 1 for extended access
[    0.133910] HugeTLB registered 2.00 MiB page size, pre-allocated 0 pages
[    0.136048] ACPI: Added _OSI(Module Device)
[    0.136421] ACPI: Added _OSI(Processor Device)
[    0.136798] ACPI: Added _OSI(3.0 _SCP Extensions)
[    0.137203] ACPI: Added _OSI(Processor Aggregator Device)
[    0.137642] ACPI: Added _OSI(Linux-Dell-Video)
[    0.138028] ACPI: Added _OSI(Linux-Lenovo-NV-HDMI-Audio)
[    0.138458] ACPI: Added _OSI(Linux-HPI-Hybrid-Graphics)
[    0.139024] ACPI: Executed 1 blocks of module-level executable AML code
[    0.141991] ACPI: Interpreter enabled
[    0.142298] ACPI: (supports S0 S5)
[    0.142576] ACPI: Using IOAPIC for interrupt routing
[    0.143085] PCI: Using host bridge windows from ACPI; if necessary, use "pci=nocrs" and report a bug
[    0.143798] ACPI: Enabled 2 GPEs in block 00 to 07
[    0.147279] ACPI: PCI Root Bridge [PCI0] (domain 0000 [bus 00-ff])
[    0.147810] acpi PNP0A03:00: _OSC: OS supports [ExtendedConfig ASPM ClockPM Segments MSI]
[    0.148623] acpi PNP0A03:00: _OSC: platform does not support [PCIeCapability]
[    0.149520] acpi PNP0A03:00: _OSC: not requesting control; platform does not support [PCIeCapability]
[    0.150265] acpi PNP0A03:00: _OSC: OS requested [PCIeHotplug PME AER PCIeCapability]
[    0.150923] acpi PNP0A03:00: _OSC: platform willing to grant [PCIeHotplug PME AER]
[    0.151556] acpi PNP0A03:00: _OSC failed (AE_SUPPORT); disabling ASPM
[    0.152177] PCI host bridge to bus 0000:00
[    0.152874] pci_bus 0000:00: root bus resource [io  0x0000-0x0cf7 window]
[    0.153420] pci_bus 0000:00: root bus resource [io  0x0d00-0xffff window]
[    0.153966] pci_bus 0000:00: root bus resource [mem 0x000a0000-0x000bffff window]
[    0.154578] pci_bus 0000:00: root bus resource [mem 0x40000000-0xfdffffff window]
[    0.155189] pci_bus 0000:00: root bus resource [bus 00-ff]
[    0.156721] pci 0000:00:01.1: legacy IDE quirk: reg 0x10: [io  0x01f0-0x01f7]
[    0.157299] pci 0000:00:01.1: legacy IDE quirk: reg 0x14: [io  0x03f6]
[    0.157829] pci 0000:00:01.1: legacy IDE quirk: reg 0x18: [io  0x0170-0x0177]
[    0.158413] pci 0000:00:01.1: legacy IDE quirk: reg 0x1c: [io  0x0376]
[    0.163891] pci 0000:00:07.0: quirk: [io  0x4000-0x403f] claimed by PIIX4 ACPI
[    0.164007] pci 0000:00:07.0: quirk: [io  0x4100-0x410f] claimed by PIIX4 SMB
[    0.166688] ACPI: PCI Interrupt Link [LNKA] (IRQs 5 9 10 *11)
[    0.167361] ACPI: PCI Interrupt Link [LNKB] (IRQs 5 9 *10 11)
[    0.168060] ACPI: PCI Interrupt Link [LNKC] (IRQs 5 *9 10 11)
[    0.168602] ACPI: PCI Interrupt Link [LNKD] (IRQs 5 9 10 *11)
[    0.169299] SCSI subsystem initialized
[    0.169627] pci 0000:00:02.0: vgaarb: setting as boot VGA device
[    0.169627] pci 0000:00:02.0: vgaarb: VGA device added: decodes=io+mem,owns=io+mem,locks=none
[    0.169627] pci 0000:00:02.0: vgaarb: bridge control possible
[    0.169686] vgaarb: loaded
[    0.169959] ACPI: bus type USB registered
[    0.172013] usbcore: registered new interface driver usbfs
[    0.172470] usbcore: registered new interface driver hub
[    0.172922] usbcore: registered new device driver usb
[    0.173387] EDAC MC: Ver: 3.0.0
[    0.173387] PCI: Using ACPI for IRQ routing
[    0.173387] NetLabel: Initializing
[    0.173387] NetLabel:  domain hash size = 128
[    0.173387] NetLabel:  protocols = UNLABELED CIPSOv4 CALIPSO
[    0.173690] NetLabel:  unlabeled traffic allowed by default
[    0.176046] clocksource: Switched to clocksource kvm-clock
[    0.184082] VFS: Disk quotas dquot_6.6.0
[    0.184461] VFS: Dquot-cache hash table entries: 512 (order 0, 4096 bytes)
[    0.185102] AppArmor: AppArmor Filesystem Enabled
[    0.185529] pnp: PnP ACPI init
[    0.186333] pnp: PnP ACPI: found 3 devices
[    0.193350] clocksource: acpi_pm: mask: 0xffffff max_cycles: 0xffffff, max_idle_ns: 2085701024 ns
[    0.194099] NET: Registered protocol family 2
[    0.194549] TCP established hash table entries: 8192 (order: 4, 65536 bytes)
[    0.195159] TCP bind hash table entries: 8192 (order: 5, 131072 bytes)
[    0.196211] TCP: Hash tables configured (established 8192 bind 8192)
[    0.196729] UDP hash table entries: 512 (order: 2, 16384 bytes)
[    0.197217] UDP-Lite hash table entries: 512 (order: 2, 16384 bytes)
[    0.197779] NET: Registered protocol family 1
[    0.198163] pci 0000:00:00.0: Limiting direct PCI/PCI transfers
[    0.198668] pci 0000:00:01.0: Activating ISA DMA hang workarounds
[    0.199198] pci 0000:00:02.0: Video device with shadowed ROM at [mem 0x000c0000-0x000dffff]
[    0.199954] Unpacking initramfs...
[    0.200203] Freeing initrd memory: 19212K
[    0.200203] clocksource: tsc: mask: 0xffffffffffffffff max_cycles: 0x33cb68e6ea4, max_idle_ns: 440795288133 ns
[    0.200203] platform rtc_cmos: registered platform RTC device (no PNP device found)
[    0.200203] Scanning for low memory corruption every 60 seconds
[    0.405928] Initialise system trusted keyrings
[    0.406323] Key type blacklist registered
[    0.406748] workingset: timestamp_bits=36 max_order=18 bucket_order=0
[    0.407872] zbud: loaded
[    0.408468] squashfs: version 4.0 (2009/01/31) Phillip Lougher
[    0.408988] fuse init (API version 7.26)
[    0.411111] Key type asymmetric registered
[    0.411420] Asymmetric key parser 'x509' registered
[    0.411773] Block layer SCSI generic (bsg) driver version 0.4 loaded (major 246)
[    0.412429] io scheduler noop registered
[    0.412725] io scheduler deadline registered
[    0.413042] io scheduler cfq registered (default)
[    0.413529] ACPI: AC Adapter [AC] (on-line)
[    0.413863] input: Power Button as /devices/LNXSYSTM:00/LNXPWRBN:00/input/input0
[    0.414398] ACPI: Power Button [PWRF]
[    0.414703] input: Sleep Button as /devices/LNXSYSTM:00/LNXSLPBN:00/input/input1
[    0.415211] ACPI: Sleep Button [SLPF]
[    0.415653] Serial: 8250/16550 driver, 32 ports, IRQ sharing enabled
[    0.436338] 00:02: ttyS0 at I/O 0x3f8 (irq = 4, base_baud = 115200) is a 16550A
[    0.438484] Linux agpgart interface v0.103
[    0.439793] loop: module loaded
[    0.440433] scsi host0: ata_piix
[    0.440826] scsi host1: ata_piix
[    0.441317] ata1: PATA max UDMA/33 cmd 0x1f0 ctl 0x3f6 bmdma 0xd000 irq 14
[    0.442085] ata2: PATA max UDMA/33 cmd 0x170 ctl 0x376 bmdma 0xd008 irq 15
[    0.442940] libphy: Fixed MDIO Bus: probed
[    0.443446] tun: Universal TUN/TAP device driver, 1.6
[    0.444131] PPP generic driver version 2.4.2
[    0.444770] ehci_hcd: USB 2.0 'Enhanced' Host Controller (EHCI) Driver
[    0.445606] ehci-pci: EHCI PCI platform driver
[    0.446235] ehci-platform: EHCI generic platform driver
[    0.446926] ohci_hcd: USB 1.1 'Open' Host Controller (OHCI) Driver
[    0.447706] ohci-pci: OHCI PCI platform driver
[    0.448307] ohci-platform: OHCI generic platform driver
[    0.449035] uhci_hcd: USB Universal Host Controller Interface driver
[    0.449889] i8042: PNP: PS/2 Controller [PNP0303:PS2K,PNP0f03:PS2M] at 0x60,0x64 irq 1,12
[    0.451423] serio: i8042 KBD port at 0x60,0x64 irq 1
[    0.452104] serio: i8042 AUX port at 0x60,0x64 irq 12
[    0.452884] mousedev: PS/2 mouse device common for all mice
[    0.453958] input: AT Translated Set 2 keyboard as /devices/platform/i8042/serio0/input/input2
[    0.455420] rtc_cmos rtc_cmos: rtc core: registered rtc_cmos as rtc0
[    0.456310] rtc_cmos rtc_cmos: alarms up to one day, 114 bytes nvram
[    0.457192] i2c /dev entries driver
[    0.457725] device-mapper: uevent: version 1.0.3
[    0.458421] device-mapper: ioctl: 4.37.0-ioctl (2017-09-20) initialised: dm-devel@redhat.com
[    0.459523] ledtrig-cpu: registered to indicate activity on CPUs
[    0.460554] NET: Registered protocol family 10
[    0.463581] Segment Routing with IPv6
[    0.464145] NET: Registered protocol family 17
[    0.464817] Key type dns_resolver registered
[    0.465523] mce: Using 0 MCE banks
[    0.465808] RAS: Correctable Errors collector initialized.
[    0.466220] sched_clock: Marking stable (465502804, 0)->(555450368, -89947564)
[    0.467009] registered taskstats version 1
[    0.467356] Loading compiled-in X.509 certificates
[    0.469639] Loaded X.509 cert 'Build time autogenerated kernel key: be62403dcace2d46f96dafa9f42421c610ef3c2a'
[    0.470953] zswap: loaded using pool lzo/zbud
[    0.473385] Key type big_key registered
[    0.473712] Key type trusted registered
[    0.475103] Key type encrypted registered
[    0.475611] AppArmor: AppArmor sha1 policy hashing enabled
[    0.476284] ima: No TPM chip found, activating TPM-bypass! (rc=-19)
[    0.477011] ima: Allocated hash algorithm: sha1
[    0.477551] evm: HMAC attrs: 0x1
[    0.478098]   Magic number: 0:416:32
[    0.478629] rtc_cmos rtc_cmos: setting system clock to 2020-12-11 15:01:38 UTC (1607698898)
[    0.479671] BIOS EDD facility v0.16 2004-Jun-25, 0 devices found
[    0.480428] EDD information not available.
[    0.782074] Freeing unused kernel image memory: 2436K
[    0.796104] Write protecting the kernel read-only data: 20480k
[    0.797063] Freeing unused kernel image memory: 2008K
[    0.797687] Freeing unused kernel image memory: 1872K
[    0.803274] x86/mm: Checked W+X mappings: passed, no W+X pages found.
Loading, please wait...
starting version 237
[    0.863129] Fusion MPT base driver 3.04.20
[    0.863671] Copyright (c) 1999-2008 LSI Corporation
[    0.868758] e1000: Intel(R) PRO/1000 Network Driver - version 7.3.21-k8-NAPI
[    0.869836] e1000: Copyright (c) 1999-2006 Intel Corporation.
[    0.873297] Fusion MPT SPI Host driver 3.04.20
[    0.877767] AVX2 version of gcm_enc/dec engaged.
[    0.878122] AES CTR mode by8 optimization enabled
[    1.092383] input: ImExPS/2 Generic Explorer Mouse as /devices/platform/i8042/serio1/input/input4
[    1.202216] e1000 0000:00:03.0 eth0: (PCI:33MHz:32-bit) 02:27:43:d9:cd:dd
[    1.202799] e1000 0000:00:03.0 eth0: Intel(R) PRO/1000 Network Connection
[    1.203883] mptbase: ioc0: Initiating bringup
[    1.203884] e1000 0000:00:03.0 enp0s3: renamed from eth0
[    1.300522] ioc0: LSI53C1030 A0: Capabilities={Initiator}
[    1.541332] scsi host2: ioc0: LSI53C1030 A0, FwRev=00000000h, Ports=1, MaxQ=256, IRQ=20
[    1.710263] scsi 2:0:0:0: Direct-Access     VBOX     HARDDISK         1.0  PQ: 0 ANSI: 5
[    1.925435] scsi target2:0:0: Beginning Domain Validation
[    1.926927] scsi target2:0:0: Domain Validation skipping write tests
[    1.927715] scsi target2:0:0: Ending Domain Validation
[    1.928410] scsi target2:0:0: asynchronous
[    1.929228] scsi 2:0:1:0: Direct-Access     VBOX     HARDDISK         1.0  PQ: 0 ANSI: 5
[    1.984112] scsi target2:0:1: Beginning Domain Validation
[    1.985483] scsi target2:0:1: Domain Validation skipping write tests
[    1.986266] scsi target2:0:1: Ending Domain Validation
[    1.986986] scsi target2:0:1: asynchronous
[    1.987559] random: fast init done
[    1.990691] random: systemd-udevd: uninitialized urandom read (16 bytes read)
[    1.990870] sd 2:0:0:0: [sda] 20971520 512-byte logical blocks: (10.7 GB/10.0 GiB)
[    1.991608] random: systemd-udevd: uninitialized urandom read (16 bytes read)
[    1.992613] sd 2:0:0:0: [sda] Write Protect is off
[    1.993503] random: systemd-udevd: uninitialized urandom read (16 bytes read)
[    1.994960] sd 2:0:0:0: [sda] Incomplete mode parameter data
[    1.995671] sd 2:0:0:0: [sda] Assuming drive cache: write through
[    1.997178] sd 2:0:0:0: Attached scsi generic sg0 type 0
[    1.998146] sd 2:0:1:0: [sdb] 20480 512-byte logical blocks: (10.5 MB/10.0 MiB)
[    1.999140] sd 2:0:1:0: [sdb] Write Protect is off
[    1.999889] sd 2:0:1:0: [sdb] Incomplete mode parameter data
[    1.999913] sd 2:0:1:0: Attached scsi generic sg1 type 0
[    2.000540] sd 2:0:1:0: [sdb] Assuming drive cache: write through
[    2.007107]  sda: sda1
[    2.007928] sd 2:0:1:0: [sdb] Attached SCSI disk
[    2.008661] sd 2:0:0:0: [sda] Attached SCSI disk
Begin: Loading essential drivers ... [    3.384278] raid6: sse2x1   gen()  7155 MB/s
[    3.432235] raid6: sse2x1   xor()  8671 MB/s
[    3.483173] raid6: sse2x2   gen() 18989 MB/s
[    3.528145] raid6: sse2x2   xor() 11473 MB/s
[    3.576123] raid6: sse2x4   gen() 18249 MB/s
[    3.624138] raid6: sse2x4   xor() 10551 MB/s
[    3.672142] raid6: avx2x1   gen() 20356 MB/s
[    3.723161] raid6: avx2x1   xor() 17350 MB/s
[    3.768165] raid6: avx2x2   gen() 35436 MB/s
[    3.816377] raid6: avx2x2   xor() 22272 MB/s
[    3.864030] raid6: avx2x4   gen() 37771 MB/s
[    3.912119] raid6: avx2x4   xor() 17374 MB/s
[    3.912460] raid6: using algorithm avx2x4 gen() 37771 MB/s
[    3.912840] raid6: .... xor() 17374 MB/s, rmw enabled
[    3.913218] raid6: using avx2x2 recovery algorithm
[    3.914850] xor: automatically using best checksumming function   avx       
[    3.916890] async_tx: api initialized (async)
done.
Begin: Running /scripts/init-premount ... done.
Begin: Mounting root file system ... Begin: Running /scripts/local-top ... done.
Begin: Running /scripts/local-premount ... [    3.951651] Btrfs loaded, crc32c=crc32c-intel
Scanning for Btrfs filesystems
done.
Warning: fsck not present, so skipping root file system
[    3.970164] EXT4-fs (sda1): mounted filesystem with ordered data mode. Opts: (null)
done.
Begin: Running /scripts/local-bottom ... done.
Begin: Running /scripts/init-bottom ... done.
[    4.080580] ip_tables: (C) 2000-2006 Netfilter Core Team
[    4.086671] systemd[1]: systemd 237 running in system mode. (+PAM +AUDIT +SELINUX +IMA +APPARMOR +SMACK +SYSVINIT +UTMP +LIBCRYPTSETUP +GCRYPT +GNUTLS +ACL +XZ +LZ4 +SECCOMP +BLKID +ELFUTILS +KMOD -IDN2 +IDN -PCRE2 default-hierarchy=hybrid)
[    4.088032] systemd[1]: Detected virtualization oracle.
[    4.088406] systemd[1]: Detected architecture x86-64.

Welcome to [1mUbuntu 18.04.5 LTS[0m!

[    4.091503] systemd[1]: Set hostname to <ubuntu-bionic>.
[    4.272599] systemd[1]: Reached target System Time Synchronized.
[[0;32m  OK  [0m] Reached target System Time Synchronized.
[    4.273786] systemd[1]: Started Forward Password Requests to Wall Directory Watch.
[[0;32m  OK  [0m] Started Forward Password Requests to Wall Directory Watch.
[    4.276120] systemd[1]: Created slice System Slice.
[[0;32m  OK  [0m] Created slice System Slice.
[    4.277089] systemd[1]: Listening on udev Control Socket.
[[0;32m  OK  [0m] Listening on udev Control Socket.
[    4.278079] systemd[1]: Listening on /dev/initctl Compatibility Named Pipe.
[[0;32m  OK  [0m] Listening on /dev/initctl Compatibility Named Pipe.
[    4.279343] systemd[1]: Listening on Journal Audit Socket.
[[0;32m  OK  [0m] Listening on Journal Audit Socket.
[[0;32m  OK  [0m] Listening on Network Service Netlink Socket.
[[0;32m  OK  [0m] Listening on udev Kernel Socket.
[[0;32m  OK  [0m] Listening on Journal Socket (/dev/log).
[[0;32m  OK  [0m] Set up automount Arbitrary Executab…rmats File System Automount Point.
[[0;32m  OK  [0m] Listening on Journal Socket.
         Starting Uncomplicated firewall...
         Starting udev Coldplug all Devices...
         Mounting POSIX Message Queue File System...
         Mounting Kernel Debug File System...
         Starting Load Kernel Modules...
         Starting Remount Root and Kernel File Systems...
[[0;32m  OK  [0m] Reached target Swap.
[[0;32m  OK  [0m] Listening on LVM2 poll daemon socket.
[[0;32m  OK  [0m] Created slice system-serial\x2dgetty.slice.
         Starting Create list of required st…ce nodes for the current kernel...
         Starting Set the console keyboard layout...
[[0;32m  OK  [0m] Listening on LVM2 metadata daemon socket.
[[0;32m  OK  [0m] Listening on Syslog Socket.
         Starting Journal Service...
[[0;32m  OK  [0m] Reached target User and Group Name Lookups.
[[0;32m  OK  [0m] Created slice User and Session Slice.
[[0;32m  OK  [0m] Reached target Slices.
         Mounting Huge Pages File System...
[[0;32m  OK  [0m] Listening on Device-mapper event daemon FIFOs.
         Starting Monitoring of LVM2 mirrors…ng dmeventd or progress polling...
[[0;32m  OK  [0m] Started Uncomplicated firewall.
[    4.315739] Loading iSCSI transport class v2.0-870.
[[0;32m  OK  [0m] Started udev Coldplug all Devices.
[    4.321992] iscsi: registered transport (tcp)
[    4.338850] iscsi: registered transport (iser)
[[0;32m  OK  [0m] Started Load Kernel Modules.
         Starting Apply Kernel Variables...
         Mounting Kernel Configuration File System...
         Mounting FUSE Control File System...
[[0;32m  OK  [0m] Started Create list of required sta…vice nodes for the current kernel.
         Starting Create Static Device Nodes in /dev...
[[0;32m  OK  [0m] Started LVM2 metadata daemon.
[[0;32m  OK  [0m] Mounted POSIX Message Queue File System.
[[0;32m  OK  [0m] Mounted Kernel Debug File System.
[[0;32m  OK  [0m] Mounted Huge Pages File System.
[[0;32m  OK  [0m] Mounted Kernel Configuration File System.
[[0;32m  OK  [0m] Mounted FUSE Control File System.
[[0;32m  OK  [0m] Started Remount Root and Kernel File Systems.
         Starting Load/Save Random Seed...
[[0;32m  OK  [0m] Started Journal Service.
[[0;32m  OK  [0m] Started Apply Kernel Variables.
[[0;32m  OK  [0m] Started Create Static Device Nodes in /dev.
[[0;32m  OK  [0m] Started Load/Save Random Seed.
         Starting udev Kernel Device Manager...
         Starting Flush Journal to Persistent Storage...
[[0;32m  OK  [0m] Started Monitoring of LVM2 mirrors,…sing dmeventd or progress polling.
[[0;32m  OK  [0m] Started udev Kernel Device Manager.
[[0;32m  OK  [0m] Started Flush Journal to Persistent Storage.
[[0;32m  OK  [0m] Started Set the console keyboard layout.
[[0;32m  OK  [0m] Started Dispatch Password Requests to Console Directory Watch.
[[0;32m  OK  [0m] Reached target Local Encrypted Volumes.
[[0;32m  OK  [0m] Reached target Local File Systems (Pre).
         Mounting /vagrant...
[[0;32m  OK  [0m] Reached target Local File Systems.
         Starting Set console font and keymap...
         Starting ebtables ruleset management...
         Starting Create Volatile Files and Directories...
         Starting Tell Plymouth To Write Out Runtime Data...
         Starting AppArmor initialization...
[[0;32m  OK  [0m] Started Set console font and keymap.
[[0;32m  OK  [0m] Found device /dev/ttyS0.
[[0;32m  OK  [0m] Started Tell Plymouth To Write Out Runtime Data.
[[0;32m  OK  [0m] Started Create Volatile Files and Directories.
         Starting Update UTMP about System Boot/Shutdown...
[[0;32m  OK  [0m] Mounted /vagrant.
[[0;32m  OK  [0m] Started Update UTMP about System Boot/Shutdown.
[[0;32m  OK  [0m] Listening on Load/Save RF Kill Switch Status /dev/rfkill Watch.
[[0;32m  OK  [0m] Started ebtables ruleset management.
[[0;32m  OK  [0m] Started AppArmor initialization.
         Starting Initial cloud-init job (pre-networking)...
         Starting Load AppArmor profiles managed internally by snapd...
[[0;32m  OK  [0m] Started Load AppArmor profiles managed internally by snapd.
[    5.475246] cloud-init[554]: Cloud-init v. 20.3-2-g371b392c-0ubuntu1~18.04.1 running 'init-local' at Fri, 11 Dec 2020 15:01:43 +0000. Up 5.35 seconds.
[[0;32m  OK  [0m] Started Initial cloud-init job (pre-networking).
[[0;32m  OK  [0m] Reached target Network (Pre).
         Starting Network Service...
[[0;32m  OK  [0m] Started Network Service.
         Starting Network Name Resolution...
         Starting Wait for Network to be Configured...
[[0;32m  OK  [0m] Started Network Name Resolution.
[[0;32m  OK  [0m] Reached target Host and Network Name Lookups.
[[0;32m  OK  [0m] Reached target Network.
[[0;32m  OK  [0m] Started Wait for Network to be Configured.
         Starting Initial cloud-init job (metadata service crawler)...
[    7.722740] cloud-init[678]: Cloud-init v. 20.3-2-g371b392c-0ubuntu1~18.04.1 running 'init' at Fri, 11 Dec 2020 15:01:45 +0000. Up 7.62 seconds.
[    7.723451] cloud-init[678]: ci-info: ++++++++++++++++++++++++++++++++++++++Net device info++++++++++++++++++++++++++++++++++++++
[    7.723840] cloud-init[678]: ci-info: +--------+------+----------------------------+---------------+--------+-------------------+
[    7.724325] cloud-init[678]: ci-info: | Device |  Up  |          Address           |      Mask     | Scope  |     Hw-Address    |
[    7.724947] cloud-init[678]: ci-info: +--------+------+----------------------------+---------------+--------+-------------------+
[    7.725491] cloud-init[678]: ci-info: | enp0s3 | True |         10.0.2.15          | 255.255.255.0 | global | 02:27:43:d9:cd:dd |
[    7.726038] cloud-init[678]: ci-info: | enp0s3 | True | fe80::27:43ff:fed9:cddd/64 |       .       |  link  | 02:27:43:d9:cd:dd |
[    7.726548] cloud-init[678]: ci-info: |   lo   | True |         127.0.0.1          |   255.0.0.0   |  host  |         .         |
[    7.726988] cloud-init[678]: ci-info: |   lo   | True |          ::1/128           |       .       |  host  |         .         |
[    7.727424] cloud-init[678]: ci-info: +--------+------+----------------------------+---------------+--------+-------------------+
[    7.727887] cloud-init[678]: ci-info: ++++++++++++++++++++++++++++Route IPv4 info+++++++++++++++++++++++++++++
[    7.728355] cloud-init[678]: ci-info: +-------+-------------+----------+-----------------+-----------+-------+
[    7.728773] cloud-init[678]: ci-info: | Route | Destination | Gateway  |     Genmask     | Interface | Flags |
[    7.729212] cloud-init[678]: ci-info: +-------+-------------+----------+-----------------+-----------+-------+
[    7.729625] cloud-init[678]: ci-info: |   0   |   0.0.0.0   | 10.0.2.2 |     0.0.0.0     |   enp0s3  |   UG  |
[    7.730055] cloud-init[678]: ci-info: |   1   |   10.0.2.0  | 0.0.0.0  |  255.255.255.0  |   enp0s3  |   U   |
[    7.730497] cloud-init[678]: ci-info: |   2   |   10.0.2.2  | 0.0.0.0  | 255.255.255.255 |   enp0s3  |   UH  |
[    7.730922] cloud-init[678]: ci-info: +-------+-------------+----------+-----------------+-----------+-------+
[    7.731361] cloud-init[678]: ci-info: +++++++++++++++++++Route IPv6 info+++++++++++++++++++
[    7.731734] cloud-init[678]: ci-info: +-------+-------------+---------+-----------+-------+
[    7.732126] cloud-init[678]: ci-info: | Route | Destination | Gateway | Interface | Flags |
[    7.732507] cloud-init[678]: ci-info: +-------+-------------+---------+-----------+-------+
[    7.732864] cloud-init[678]: ci-info: |   1   |  fe80::/64  |    ::   |   enp0s3  |   U   |
[    7.733241] cloud-init[678]: ci-info: |   3   |    local    |    ::   |   enp0s3  |   U   |
[    7.733600] cloud-init[678]: ci-info: |   4   |   ff00::/8  |    ::   |   enp0s3  |   U   |
[    7.734038] cloud-init[678]: ci-info: +-------+-------------+---------+-----------+-------+
[[0;32m  OK  [0m] Started Initial cloud-init job (metadata service crawler).
[[0;32m  OK  [0m] Reached target Cloud-config availability.
[[0;32m  OK  [0m] Reached target Network is Online.
         Starting Availability of block devices...
[[0;32m  OK  [0m] Reached target Remote File Systems (Pre).
[[0;32m  OK  [0m] Reached target Remote File Systems.
[[0;32m  OK  [0m] Reached target System Initialization.
[[0;32m  OK  [0m] Listening on D-Bus System Message Bus Socket.
[[0;32m  OK  [0m] Started Discard unused blocks once a week.
[[0;32m  OK  [0m] Started Daily Cleanup of Temporary Directories.
[[0;32m  OK  [0m] Started Daily apt download activities.
[[0;32m  OK  [0m] Started Daily apt upgrade and clean activities.
         Starting LXD - unix socket.
[[0;32m  OK  [0m] Started ACPI Events Check.
         Starting Socket activation for snappy daemon.
[[0;32m  OK  [0m] Reached target Paths.
[[0;32m  OK  [0m] Listening on UUID daemon activation socket.
[[0;32m  OK  [0m] Listening on Open-iSCSI iscsid Socket.
[[0;32m  OK  [0m] Started Message of the Day.
[[0;32m  OK  [0m] Reached target Timers.
[[0;32m  OK  [0m] Listening on ACPID Listen Socket.
[[0;32m  OK  [0m] Listening on LXD - unix socket.
[[0;32m  OK  [0m] Listening on Socket activation for snappy daemon.
[[0;32m  OK  [0m] Reached target Sockets.
[[0;32m  OK  [0m] Reached target Basic System.
[[0;32m  OK  [0m] Started irqbalance daemon.
         Starting Discard unused blocks...
         Starting LSB: Record successful boot for GRUB...
         Starting Permit User Sessions...
         Starting Accounts Service...
[[0;32m  OK  [0m] Started Deferred execution scheduler.
[[0;32m  OK  [0m] Started D-Bus System Message Bus.
         Starting System Logging Service...
         Starting Virtualbox guest utils...
         Starting Message of the Day...
[[0;32m  OK  [0m] Started FUSE filesystem for LXC.
         Starting Dispatcher daemon for systemd-networkd...
         Starting LXD - container startup/shutdown...
         Starting OpenBSD Secure Shell server...
[[0;32m  OK  [0m] Started Regular background program processing daemon.
         Starting Snap Daemon...
         Starting LSB: automatic crash report generation...
         Starting Login Service...
[[0;32m  OK  [0m] Started System Logging Service.
[[0;32m  OK  [0m] Started Availability of block devices.
[[0;32m  OK  [0m] Started Discard unused blocks.
[[0;32m  OK  [0m] Started Permit User Sessions.
         Starting Terminate Plymouth Boot Screen...
         Starting Hold until boot process finishes up...
[[0;32m  OK  [0m] Started Hold until boot process finishes up.
[[0;32m  OK  [0m] Started Serial Getty on ttyS0.
         Starting Set console scheme...
[[0;32m  OK  [0m] Started Terminate Plymouth Boot Screen.
[[0;32m  OK  [0m] Started Set console scheme.
[[0;32m  OK  [0m] Started Login Service.
[[0;32m  OK  [0m] Started Unattended Upgrades Shutdown.
[[0;32m  OK  [0m] Created slice system-getty.slice.
[[0;32m  OK  [0m] Started Getty on tty1.
[[0;32m  OK  [0m] Reached target Login Prompts.
         Starting Authorization Manager...
[[0;32m  OK  [0m] Started LSB: Record successful boot for GRUB.
[[0;32m  OK  [0m] Started Authorization Manager.
[[0;32m  OK  [0m] Started Accounts Service.
[[0;32m  OK  [0m] Started Virtualbox guest utils.
[[0;32m  OK  [0m] Started OpenBSD Secure Shell server.
[[0;32m  OK  [0m] Started LSB: automatic crash report generation.
[[0;32m  OK  [0m] Started LXD - container startup/shutdown.
[[0;32m  OK  [0m] Started Dispatcher daemon for systemd-networkd.
[[0;32m  OK  [0m] Started Snap Daemon.
         Starting Wait until snapd is fully seeded...
[[0;32m  OK  [0m] Started Wait until snapd is fully seeded.
         Starting Apply the settings specified in cloud-config...
[[0;32m  OK  [0m] Reached target Multi-User System.
[[0;32m  OK  [0m] Reached target Graphical Interface.
         Starting Update UTMP about System Runlevel Changes...
[[0;32m  OK  [0m] Started Update UTMP about System Runlevel Changes.
[[0;32m  OK  [0m] Started Message of the Day.
[    9.108347] cloud-init[1124]: Cloud-init v. 20.3-2-g371b392c-0ubuntu1~18.04.1 running 'modules:config' at Fri, 11 Dec 2020 15:01:47 +0000. Up 9.04 seconds.
[[0;32m  OK  [0m] Started Apply the settings specified in cloud-config.
         Starting Execute cloud user/final scripts...
[    9.398968] cloud-init[1196]: Cloud-init v. 20.3-2-g371b392c-0ubuntu1~18.04.1 running 'modules:final' at Fri, 11 Dec 2020 15:01:47 +0000. Up 9.33 seconds.
[    9.399599] cloud-init[1196]: Cloud-init v. 20.3-2-g371b392c-0ubuntu1~18.04.1 finished at Fri, 11 Dec 2020 15:01:47 +0000. Datasource DataSourceNoCloud [seed=/dev/sdb][dsmode=net].  Up 9.39 seconds
[[0;32m  OK  [0m] Started Execute cloud user/final scripts.
         Starting Daily apt download activities...
[[0;32m  OK  [0m] Reached target Cloud-init target.
[[0;32m  OK  [0m] Created slice User Slice of vagrant.
         Starting User Manager for UID 1000...
[[0;32m  OK  [0m] Started Session 1 of user vagrant.
[[0;32m  OK  [0m] Started User Manager for UID 1000.

Ubuntu 18.04.5 LTS ubuntu-bionic ttyS0

ubuntu-bionic login: [[0;32m  OK  [0m] Stopped Daily apt upgrade and clean activities.
         Stopping Daily apt upgrade and clean activities.
[[0;32m  OK  [0m] Started Daily apt upgrade and clean activities.
[[0;32m  OK  [0m] Stopped Daily apt download activities.
         Stopping Daily apt download activities.
[[0;32m  OK  [0m] Started Daily apt download activities.
[[0;32m  OK  [0m] Started Daily apt upgrade and clean activities.
[[0;32m  OK  [0m] Stopped Unattended Upgrades Shutdown.
[[0;32m  OK  [0m] Stopped target Graphical Interface.
[[0;32m  OK  [0m] Stopped target Timers.
[[0;32m  OK  [0m] Stopped Discard unused blocks once a week.
[[0;32m  OK  [0m] Stopped Daily Cleanup of Temporary Directories.
[[0;32m  OK  [0m] Closed Load/Save RF Kill Switch Status /dev/rfkill Watch.
[[0;32m  OK  [0m] Stopped Daily apt upgrade and clean activities.
[[0;32m  OK  [0m] Stopped target Cloud-init target.
         Stopping Availability of block devices...
[[0;32m  OK  [0m] Stopped Execute cloud user/final scripts.
         Unmounting /vagrant...
         Stopping Authorization Manager...
[[0;32m  OK  [0m] Stopped target Multi-User System.
         Stopping D-Bus System Message Bus...
         Stopping LXD - container startup/shutdown...
         Stopping Deferred execution scheduler...
         Stopping Regular background program processing daemon...
         Stopping System Logging Service...
         Stopping irqbalance daemon...
         Stopping LSB: Record successful boot for GRUB...
         Stopping Virtualbox guest utils...
         Stopping Session 6 of user vagrant.
[[0;32m  OK  [0m] Stopped target Login Prompts.
         Stopping Getty on tty1...
         Stopping Dispatcher daemon for systemd-networkd...
         Stopping Accounts Service...
         Stopping OpenBSD Secure Shell server...
[[0;32m  OK  [0m] Stopped Daily apt download activities.
[[0;32m  OK  [0m] Stopped Apply the settings specified in cloud-config.
[[0;32m  OK  [0m] Stopped target Cloud-config availability.
[[0;32m  OK  [0m] Stopped target Network is Online.
         Stopping LSB: automatic crash report generation...
         Stopping Serial Getty on ttyS0...
[[0;32m  OK  [0m] Stopped Message of the Day.
[[0;32m  OK  [0m] Stopped target System Time Synchronized.
[[0;32m  OK  [0m] Stopped Wait until snapd is fully seeded.
         Stopping FUSE filesystem for LXC...
[[0;32m  OK  [0m] Stopped target Host and Network Name Lookups.
         Stopping User Manager for UID 1000...
[[0;32m  OK  [0m] Unmounted /var/lib/lxcfs.
[[0;32m  OK  [0m] Stopped irqbalance daemon.
[[0;32m  OK  [0m] Stopped Accounts Service.
[[0;32m  OK  [0m] Stopped Deferred execution scheduler.
[[0;32m  OK  [0m] Stopped System Logging Service.
[[0;32m  OK  [0m] Stopped Dispatcher daemon for systemd-networkd.
[[0;32m  OK  [0m] Stopped Regular background program processing daemon.
[[0;32m  OK  [0m] Stopped Serial Getty on ttyS0.
[[0;32m  OK  [0m] Stopped Getty on tty1.
[[0;32m  OK  [0m] Stopped Authorization Manager.
[[0;32m  OK  [0m] Stopped OpenBSD Secure Shell server.
[[0;32m  OK  [0m] Stopped User Manager for UID 1000.
[[0;32m  OK  [0m] Stopped Availability of block devices.
[[0;32m  OK  [0m] Stopped D-Bus System Message Bus.
[[0;32m  OK  [0m] Stopped Session 6 of user vagrant.
[[0;32m  OK  [0m] Stopped FUSE filesystem for LXC.
[[0;32m  OK  [0m] Stopped LXD - container startup/shutdown.
[[0;32m  OK  [0m] Stopped LSB: Record successful boot for GRUB.
[[0;32m  OK  [0m] Unmounted /vagrant.
[[0;32m  OK  [0m] Removed slice User Slice of vagrant.
         Stopping Login Service...
[[0;32m  OK  [0m] Removed slice system-getty.slice.
         Stopping Permit User Sessions...
[[0;32m  OK  [0m] Removed slice system-serial\x2dgetty.slice.
[[0;32m  OK  [0m] Stopped Permit User Sessions.
[[0;32m  OK  [0m] Stopped target Network.
         Stopping Network Name Resolution...
[[0;32m  OK  [0m] Stopped LSB: automatic crash report generation.
[[0;32m  OK  [0m] Stopped target Remote File Systems.
[[0;32m  OK  [0m] Stopped target Remote File Systems (Pre).
[[0;32m  OK  [0m] Stopped Virtualbox guest utils.
[[0;32m  OK  [0m] Stopped Network Name Resolution.
[[0;32m  OK  [0m] Stopped Login Service.
[[0;32m  OK  [0m] Stopped target User and Group Name Lookups.
[[0;32m  OK  [0m] Stopped target Basic System.
[[0;32m  OK  [0m] Stopped target Slices.
[[0;32m  OK  [0m] Stopped target Sockets.
[[0;32m  OK  [0m] Closed Syslog Socket.
[[0;32m  OK  [0m] Closed ACPID Listen Socket.
[[0;32m  OK  [0m] Closed Socket activation for snappy daemon.
[[0;32m  OK  [0m] Closed Open-iSCSI iscsid Socket.
[[0;32m  OK  [0m] Closed UUID daemon activation socket.
[[0;32m  OK  [0m] Closed D-Bus System Message Bus Socket.
[[0;32m  OK  [0m] Closed LXD - unix socket.
[[0;32m  OK  [0m] Stopped target Paths.
[[0;32m  OK  [0m] Stopped ACPI Events Check.
[[0;32m  OK  [0m] Removed slice User and Session Slice.
[[0;32m  OK  [0m] Stopped target System Initialization.
         Stopping Load/Save Random Seed...
         Stopping Update UTMP about System Boot/Shutdown...
[[0;32m  OK  [0m] Stopped target Local Encrypted Volumes.
[[0;32m  OK  [0m] Stopped Forward Password Requests to Wall Directory Watch.
[[0;32m  OK  [0m] Stopped Dispatch Password Requests to Console Directory Watch.
[[0;32m  OK  [0m] Stopped Initial cloud-init job (metadata service crawler).
[[0;32m  OK  [0m] Stopped Wait for Network to be Configured.
         Stopping Network Service...
[[0;32m  OK  [0m] Stopped Load/Save Random Seed.
[[0;32m  OK  [0m] Stopped Update UTMP about System Boot/Shutdown.
[[0;32m  OK  [0m] Stopped Create Volatile Files and Directories.
[[0;32m  OK  [0m] Stopped target Local File Systems.
         Unmounting /run/user/1000...
[[0;32m  OK  [0m] Stopped Network Service.
[[0;32m  OK  [0m] Stopped Apply Kernel Variables.
[[0;32m  OK  [0m] Stopped Load Kernel Modules.
[[0;32m  OK  [0m] Stopped target Network (Pre).
[[0;32m  OK  [0m] Stopped Initial cloud-init job (pre-networking).
[[0;32m  OK  [0m] Unmounted /run/user/1000.
[[0;32m  OK  [0m] Reached target Unmount All Filesystems.
[[0;32m  OK  [0m] Stopped target Local File Systems (Pre).
         Stopping Monitoring of LVM2 mirrors…ng dmeventd or progress polling...
[[0;32m  OK  [0m] Stopped Create Static Device Nodes in /dev.
[[0;32m  OK  [0m] Stopped Remount Root and Kernel File Systems.
[[0;32m  OK  [0m] Stopped target Swap.
[[0;32m  OK  [0m] Reached target Shutdown.
[[0;32m  OK  [0m] Reached target Final Step.
         Starting Power-Off...
[ 1127.568145] reboot: Power down
